…
Tidy data
---------

To put everything into tidy text format, we first create three tibbles `d_overview_tidy`, `d_description_tidy`, `d_manual` that respectively store the overviews, descriptions and text from manuals in the tidy text format, with one row per course-year-word (and course-word for `d_manual`).

``` r
tidy_text <- function(df) df %>% unnest_tokens(output = word, input = text)
```

``` r
d_text <- d_text %>% map(tidy_text) %T>% print
```

    ## $catalogues
    ## # A tibble: 166,101 x 4
    ##    `Course ID`                        department    `Course Title` word    
    ##    <chr>                              <chr>         <chr>          <chr>   
    ##  1 Language & professional skills: E~ European_stu~ <NA>           language
    ##  2 Language & professional skills: E~ European_stu~ <NA>           profess~
    ##  3 Language & professional skills: E~ European_stu~ <NA>           skills  
    ##  4 Language & professional skills: E~ European_stu~ <NA>           english 
    ##  5 Language & professional skills: E~ European_stu~ <NA>           diagnos~
    ##  6 Language & professional skills: E~ European_stu~ <NA>           test    
    ##  7 Language & professional skills: E~ European_stu~ <NA>           full    
    ##  8 Language & professional skills: E~ European_stu~ <NA>           course  
    ##  9 Language & professional skills: E~ European_stu~ <NA>           descrip~
    ## 10 Language & professional skills: E~ European_stu~ <NA>           this    
    ## # ... with 166,091 more rows
    ## 
    ## $manuals
    ## # A tibble: 1,114,195 x 2
    ##    `Course ID` word 
    ##    <chr>       <chr>
    ##  1 COR1002     p    
    ##  2 COR1002     h    
    ##  3 COR1002     i    
    ##  4 COR1002     l    
    ##  5 COR1002     o    
    ##  6 COR1002     s    
    ##  7 COR1002     o    
    ##  8 COR1002     p    
    ##  9 COR1002     hy   
    ## 10 COR1002     o    
    ## # ... with 1,114,185 more rows
…
}
```

``` r
dictionary <- union(d_text$catalogues$word, d_text$manuals$word) %>%
  
  tibble(word = .) %>%
  
  mutate(word_stem = word %>% map_chr(stem))

# terms for which the stem differs from the original word
filter(dictionary, word != word_stem)
```

    ## # A tibble: 11,272 x 2
    ##    word        word_stem
    ##    <chr>       <chr>    
    ##  1 skills      skill    
    ##  2 aims        aim      
    ##  3 determining determine
    ##  4 students    student  
    ##  5 making      make     
    ##  6 studies     study    
    ##  7 lowest      low      
    ##  8 scoring     score    
    ##  9 writing     writ     
    ## 10 trainers    train    
    ## # ... with 11,262 more rows
…
    # remove NA
    filter(!is.na(word))
  
}
```

``` r
d_text <- d_text %>% map(remove_sw) %T>% print
```

    ## $catalogues
    ## # A tibble: 81,255 x 5
    ##    `Course ID`             department   `Course Title` word_original word  
    ##    <chr>                   <chr>        <chr>          <chr>         <chr> 
    ##  1 Language & professiona~ European_st~ <NA>           language      langu~
    ##  2 Language & professiona~ European_st~ <NA>           professional  profe~
    ##  3 Language & professiona~ European_st~ <NA>           skills        skill 
    ##  4 Language & professiona~ European_st~ <NA>           english       engli~
    ##  5 Language & professiona~ European_st~ <NA>           diagnostic    diagn~
    ##  6 Language & professiona~ European_st~ <NA>           test          test  
    ##  7 Language & professiona~ European_st~ <NA>           description   descr~
    ##  8 Language & professiona~ European_st~ <NA>           compulsory    compu~
    ##  9 Language & professiona~ European_st~ <NA>           diagnostic    diagn~
    ## 10 Language & professiona~ European_st~ <NA>           test          test  
    ## # ... with 81,245 more rows
    ## 
    ## $manuals
    ## # A tibble: 482,526 x 3
    ##    `Course ID` word_original word       
    ##    <chr>       <chr>         <chr>      
    ##  1 COR1002     fall          fall       
    ##  2 COR1002     2017          2017       
    ##  3 COR1002     cor           cor        
    ##  4 COR1002     1002          1002       
    ##  5 COR1002     cor           cor        
    ##  6 COR1002     1002          1002       
    ##  7 COR1002     philosophy    philosophy 
    ##  8 COR1002     science       science    
    ##  9 COR1002     contents      content    
    ## 10 COR1002     information   information
    ## # ... with 482,516 more rows
…
