…
    ## 1 GPA      0.363  
    ## 2 GPA_HUM  0      
    ## 3 GPA_SCI  0.474  
    ## 4 GPA_SSC  0      
    ## 5 GPA_COR -0.00320
    ## 6 GPA_SKI  0.363  
    ## 7 GPA_PRO  0      
    ## # A tibble: 3 x 2
    ##   id       coefi
    ##   <chr>    <dbl>
    ## 1 Topic_46  2.73
    ## 2 Topic_57  1.28
    ## 3 Topic_9   7.00

    ## # A tibble: 30 x 3
    ## # Groups:   topic [3]
    ##    topic    term           beta
    ##    <chr>    <chr>         <dbl>
    ##  1 Topic 46 material     0.0734
    ##  2 Topic 46 apply        0.0422
    ##  3 Topic 46 technique    0.0355
    ##  4 Topic 46 understand   0.0178
    ##  5 Topic 46 obtain       0.0169
    ##  6 Topic 46 meet         0.0153
    ##  7 Topic 46 conservation 0.0136
    ##  8 Topic 46 polymer      0.0136
    ##  9 Topic 46 advance      0.0127
    ## 10 Topic 46 description  0.0119
    ## # ... with 20 more rows
…
    ## 1 GPA     0.0576
    ## 2 GPA_HUM 0     
    ## 3 GPA_SCI 0.519 
    ## 4 GPA_SSC 0     
    ## 5 GPA_COR 0     
    ## 6 GPA_SKI 0.605 
    ## 7 GPA_PRO 0     
    ## # A tibble: 3 x 2
    ##   id       coefi
    ##   <chr>    <dbl>
    ## 1 Topic_25  4.37
    ## 2 Topic_30  3.83
    ## 3 Topic_4   2.95

    ## # A tibble: 30 x 3
    ## # Groups:   topic [3]
    ##    topic    term            beta
    ##    <chr>    <chr>          <dbl>
    ##  1 Topic 25 behaviour     0.0513
    ##  2 Topic 25 brain         0.0418
    ##  3 Topic 25 develop       0.0412
    ##  4 Topic 25 function      0.0374
    ##  5 Topic 25 cognitive     0.0254
    ##  6 Topic 25 behavioural   0.0197
    ##  7 Topic 25 developmental 0.0171
    ##  8 Topic 25 hormone       0.0159
    ##  9 Topic 25 child         0.0152
    ## 10 Topic 25 attention     0.0121
    ## # ... with 20 more rows
…
    ## 1 GPA      0     
    ## 2 GPA_HUM -0.0120
    ## 3 GPA_SCI  0.365 
    ## 4 GPA_SSC  0     
    ## 5 GPA_COR  0     
    ## 6 GPA_SKI  0     
    ## 7 GPA_PRO  0.115 
    ## # A tibble: 3 x 2
    ##   id       coefi
    ##   <chr>    <dbl>
    ## 1 Topic_16 2.45 
    ## 2 Topic_47 0.981
    ## 3 Topic_49 1.99

    ## # A tibble: 30 x 3
    ## # Groups:   topic [3]
    ##    topic    term             beta
    ##    <chr>    <chr>           <dbl>
    ##  1 Topic 16 heal           0.106 
    ##  2 Topic 16 public         0.0882
    ##  3 Topic 16 evaluate       0.0290
    ##  4 Topic 16 develop        0.0215
    ##  5 Topic 16 book           0.0189
    ##  6 Topic 16 avail          0.0189
    ##  7 Topic 16 gram           0.0145
    ##  8 Topic 16 approach       0.0133
    ##  9 Topic 16 intervention   0.0133
    ## 10 Topic 16 implementation 0.0127
    ## # ... with 20 more rows
…
